{
  "project_info": {
    "project_number": "239877607203",
    "firebase_url": "https://loginsystem-5edc8.firebaseio.com",
    "project_id": "loginsystem-5edc8",
    "storage_bucket": "loginsystem-5edc8.appspot.com"
  },
  "client": [
    {
      "client_info": {
        "mobilesdk_app_id": "1:239877607203:android:51516128f0217598f80696",
        "android_client_info": {
          "package_name": "com.example.NutriPhi"
        }
      },
      "oauth_client": [
        {
          "client_id": "239877607203-qi74bogr9lud0vnfkgo366p946bsn36n.apps.googleusercontent.com",
          "client_type": 3
        }
      ],
      "api_key": [
        {
          "current_key": "AIzaSyBiW3qyitJKtT_zfV7H84AJOE4T_YZIzOY"
        }
      ],
      "services": {
        "appinvite_service": {
          "other_platform_oauth_client": [
            {
              "client_id": "239877607203-qi74bogr9lud0vnfkgo366p946bsn36n.apps.googleusercontent.com",
              "client_type": 3
            }
          ]
        }
      }
    }
  ],
  "configuration_version": "1"
}